<svg width="16" height="17" viewBox="0 0 16 17" fill="none" xmlns="http://www.w3.org/2000/svg">
<path fill-rule="evenodd" clip-rule="evenodd" d="M9.5 7V0.5H6.5V7H0V10H6.5V16.5H9.5V10H16V7H9.5Z" fill="#AABBC6"/>
</svg>
